Anurag_Agarwal_COGNIZANT@appvance.ai,user,Appvance,AppvanceSH93847573*A,AppvanceSH93847573*A
Dharmendra_Mahanty_COGNIZANT@appvance.ai,user,Appvance,AppvanceSH93847573*A,AppvanceSH93847573*A
Dhowlathbasha_Shahajath_COGNIZANT@appvance.ai,user,Appvance,AppvanceSH93847573*A,AppvanceSH93847573*A
Joost_Jongman_COGNIZANT@appvance.ai,user,Appvance,AppvanceSH93847573*A,AppvanceSH93847573*A
Joywell_Dsouza_COGNIZANT@appvance.ai,user,Appvance,AppvanceSH93847573*A,AppvanceSH93847573*A
Marco_Den_COGNIZANT@appvance.ai,user,Appvance,AppvanceSH93847573*A,AppvanceSH93847573*A
Mayank_Alok_COGNIZANT@appvance.ai,user,Appvance,AppvanceSH93847573*A,AppvanceSH93847573*A
Nithya_Krishnaswamy_COGNIZANT@appvance.ai,user,Appvance,AppvanceSH93847573*A,AppvanceSH93847573*A
Vaidik_Padimiti_COGNIZANT@appvance.ai,user,Appvance,AppvanceSH93847573*A,AppvanceSH93847573*A
Sayan_Chatterjee_COGNIZANT@appvance.ai,user,Appvance,AppvanceSH93847573*A,AppvanceSH93847573*A
Varadashashikumar_LNU_COGNIZANT@appvance.ai,user,Appvance,AppvanceSH93847573*A,AppvanceSH93847573*A
Yatish_Upmanyu_COGNIZANT@appvance.ai,user,Appvance,AppvanceSH93847573*A,AppvanceSH93847573*A
Ashish_Nikumbh_COGNIZANT@appvance.ai,user,Appvance,AppvanceSH93847573*A,AppvanceSH93847573*A
Prajval_Wachkavade_COGNIZANT@appvance.ai,user,Appvance,AppvanceSH93847573*A,AppvanceSH93847573*A
Sravanth_Nagunuri_COGNIZANT@appvance.ai,user,Appvance,AppvanceSH93847573*A,AppvanceSH93847573*A
Santosh_Morsu_COGNIZANT@appvance.ai,user,Appvance,AppvanceSH93847573*A,AppvanceSH93847573*A
Lakshmi_Jonnalagadda_COGNIZANT@appvance.ai,user,Appvance,AppvanceSH93847573*A,AppvanceSH93847573*A
Padmakshi_Nampalli_COGNIZANT@appvance.ai,user,Appvance,AppvanceSH93847573*A,AppvanceSH93847573*A
Aniruddha_Chakraborty_COGNIZANT@appvance.ai,user,Appvance,AppvanceSH93847573*A,AppvanceSH93847573*A
Moumita_Mitra_COGNIZANT@appvance.ai,user,Appvance,AppvanceSH93847573*A,AppvanceSH93847573*A
Kavya_Ravindran_ACCENTURE@appvance.ai,user,Appvance,AppvanceSH93847573*A,AppvanceSH93847573*A
Gadiraju_Sneha_ACCENTURE@appvance.ai,user,Appvance,AppvanceSH93847573*A,AppvanceSH93847573*A
Sachin_Patil_ACCENTURE@appvance.ai,user,Appvance,AppvanceSH93847573*A,AppvanceSH93847573*A
Niharika_Alurgudur_ACCENTURE@appvance.ai,user,Appvance,AppvanceSH93847573*A,AppvanceSH93847573*A
Kavya_Ravindran_ACCENTURE@appvance.ai,user,Appvance,AppvanceSH93847573*A,AppvanceSH93847573*A
Sneha_Gadiraju_ACCENTURE@appvance.ai,user,Appvance,AppvanceSH93847573*A,AppvanceSH93847573*A
Apurva_Pandit_CAPGEMINI@appvance.com,user,Appvance,AppvanceSH93847573*A,AppvanceSH93847573*A
Prashant_Japathibabu_CAPGEMINI@appvance.com,user,Appvance,AppvanceSH93847573*A,AppvanceSH93847573*A
Tharun_Kumar_CAPGEMINI@appvance.com,user,Appvance,AppvanceSH93847573*A,AppvanceSH93847573*A
Ashvini_Tekade_CAPGEMINI@appvance.com,user,Appvance,AppvanceSH93847573*A,AppvanceSH93847573*A
Omkar_Pise_CAPGEMINI@appvance.com,user,Appvance,AppvanceSH93847573*A,AppvanceSH93847573*A
Devarshi_Tandel_CAPGEMINI@appvance.com,user,Appvance,AppvanceSH93847573*A,AppvanceSH93847573*A
Shreya_Karande_CAPGEMINI@appvance.com,user,Appvance,AppvanceSH93847573*A,AppvanceSH93847573*A
Shivani_Maddala_CAPGEMINI@appvance.com,user,Appvance,AppvanceSH93847573*A,AppvanceSH93847573*A
Aatish_Sambyal_SPGLOBAL@appvance.com,user,Appvance,AppvanceSH93847573*A,AppvanceSH93847573*A
Manoj_Yadav_SPGLOBAL@appvance.com,user,Appvance,AppvanceSH93847573*A,AppvanceSH93847573*A
Rachit_Srivastava_SPGLOBAL@appvance.com,user,Appvance,AppvanceSH93847573*A,AppvanceSH93847573*A
Nikhil_Gupta_SPGLOBAL@appvance.com,user,Appvance,AppvanceSH93847573*A,AppvanceSH93847573*A
Ashish_Yadav_SPGLOBAL@appvance.com,user,Appvance,AppvanceSH93847573*A,AppvanceSH93847573*A
Tanima_Rai_SPGLOBAL@appvance.com,user,Appvance,AppvanceSH93847573*A,AppvanceSH93847573*A
Vikas_Pandey_SPGLOBAL@appvance.com,user,Appvance,AppvanceSH93847573*A,AppvanceSH93847573*A
Saurabh_Walia_SPGLOBAL@appvance.com,user,Appvance,AppvanceSH93847573*A,AppvanceSH93847573*A
Arun_Kapoor_SPGLOBAL@appvance.com,user,Appvance,AppvanceSH93847573*A,AppvanceSH93847573*A
Sachin_Bapurao_ACCENTURE@appvance.ai,user,Appvance,AppvanceSH93847573*A,AppvanceSH93847573*A
Kavya_Ravindran_ACCENTURE@appvance.ai,user,Appvance,AppvanceSH93847573*A,AppvanceSH93847573*A
Gadiraju_Sneha_ACCENTURE@appvance.ai,user,Appvance,AppvanceSH93847573*A,AppvanceSH93847573*A
Dineshkumar_Loganathan_SYSVEDA@appvance.com,user,Appvance,AppvanceSH93847573*A,AppvanceSH93847573*A
Prasanth_Pasupathirajan_SYSVEDA@appvance.com,user,Appvance,AppvanceSH93847573*A,AppvanceSH93847573*A
Ravirajan_Bakthapiragalathan_SYSVEDA@appvance.com,user,Appvance,AppvanceSH93847573*A,AppvanceSH93847573*A
Senthilkumar_Ramalingam_SYSVEDA@appvance.com,user,Appvance,AppvanceSH93847573*A,AppvanceSH93847573*A
Kishanyadav_Chennareddygari_SYSVEDA@appvance.com,user,Appvance,AppvanceSH93847573*A,AppvanceSH93847573*A
Shalini_Naganathan_SYSVEDA@appvance.com,user,Appvance,AppvanceSH93847573*A,AppvanceSH93847573*A
Arunkumar_Vinayagam_SYSVEDA@appvance.com,user,Appvance,AppvanceSH93847573*A,AppvanceSH93847573*A
Revathy_Ganesan_SYSVEDA@appvance.com,user,Appvance,AppvanceSH93847573*A,AppvanceSH93847573*A
Vinithakumari_Kannan_SYSVEDA@appvance.com,user,Appvance,AppvanceSH93847573*A,AppvanceSH93847573*A
Kuzhali_Jayavelu_SYSVEDA@appvance.com,user,Appvance,AppvanceSH93847573*A,AppvanceSH93847573*A
Mano_Murugesan_SYSVEDA@appvance.com,user,Appvance,AppvanceSH93847573*A,AppvanceSH93847573*A
Pavithra_Karthikeyan_SYSVEDA@appvance.com,user,Appvance,AppvanceSH93847573*A,AppvanceSH93847573*A
Sowmiya_Kumaresan_SYSVEDA@appvance.com,user,Appvance,AppvanceSH93847573*A,AppvanceSH93847573*A
Gokila_Rajendran_SYSVEDA@appvance.com,user,Appvance,AppvanceSH93847573*A,AppvanceSH93847573*A
Aravindan_Vijayakumar_SYSVEDA@appvance.com,user,Appvance,AppvanceSH93847573*A,AppvanceSH93847573*A
Arvindreddy_Raghupathireddy_SYSVEDA@appvance.com,user,Appvance,AppvanceSH93847573*A,AppvanceSH93847573*A
Srinath_Sundarrajan_SYSVEDA@appvance.com,user,Appvance,AppvanceSH93847573*A,AppvanceSH93847573*A
Syedimran_Thamisdeen_SYSVEDA@appvance.com,user,Appvance,AppvanceSH93847573*A,AppvanceSH93847573*A
Sharmila_Palani_SYSVEDA@appvance.com,user,Appvance,AppvanceSH93847573*A,AppvanceSH93847573*A
Rajalakshmi_Annadurai_SYSVEDA@appvance.com,user,Appvance,AppvanceSH93847573*A,AppvanceSH93847573*A
Arunprakash_Jothi_SYSVEDA@appvance.com,user,Appvance,AppvanceSH93847573*A,AppvanceSH93847573*A
Jancyjenifer_Michaelraj_SYSVEDA@appvance.com,user,Appvance,AppvanceSH93847573*A,AppvanceSH93847573*A
Priya_Sankaranarayanan_SYSVEDA@appvance.com,user,Appvance,AppvanceSH93847573*A,AppvanceSH93847573*A
Aravindh_Ganesan_SYSVEDA@appvance.com,user,Appvance,AppvanceSH93847573*A,AppvanceSH93847573*A
Abinaya_Vijayakumar_SYSVEDA@appvance.com,user,Appvance,AppvanceSH93847573*A,AppvanceSH93847573*A
Brindha_Muthaiah_SYSVEDA@appvance.com,user,Appvance,AppvanceSH93847573*A,AppvanceSH93847573*A
Sivaramakrishnan_Palanisamy_SYSVEDA@appvance.com,user,Appvance,AppvanceSH93847573*A,AppvanceSH93847573*A
Sathyapriya_Sekar_SYSVEDA@appvance.com,user,Appvance,AppvanceSH93847573*A,AppvanceSH93847573*A
Deepak_Chandru_SYSVEDA@appvance.com,user,Appvance,AppvanceSH93847573*A,AppvanceSH93847573*A
Vijay_Subramani_SYSVEDA@appvance.com,user,Appvance,AppvanceSH93847573*A,AppvanceSH93847573*A
Vinothkumar_Rajendran_SYSVEDA@appvance.com,user,Appvance,AppvanceSH93847573*A,AppvanceSH93847573*A
Sankaranarayani_Regupathy_SYSVEDA@appvance.com,user,Appvance,AppvanceSH93847573*A,AppvanceSH93847573*A
Sivaram_Nagarajan_SYSVEDA@appvance.com,user,Appvance,AppvanceSH93847573*A,AppvanceSH93847573*A
Dhivakar_Ramachandran_SYSVEDA@appvance.com,user,Appvance,AppvanceSH93847573*A,AppvanceSH93847573*A
Navinkumar_Kumar_SYSVEDA@appvance.com,user,Appvance,AppvanceSH93847573*A,AppvanceSH93847573*A
Sujitha_Uvaraj_SYSVEDA@appvance.com,user,Appvance,AppvanceSH93847573*A,AppvanceSH93847573*A
Karthick_Palani_SYSVEDA@appvance.com,user,Appvance,AppvanceSH93847573*A,AppvanceSH93847573*A
Jeffrey_Ng_ANCESTRY@appvance.com,user,Appvance,AppvanceSH93847573*A,AppvanceSH93847573*A
Maitrey_Patel_ANCESTRY@appvance.com,user,Appvance,AppvanceSH93847573*A,AppvanceSH93847573*A
Prabhudas_Mallisetti_ANCESTRY@appvance.com,user,Appvance,AppvanceSH93847573*A,AppvanceSH93847573*A
Sagar_Umloti_ANCESTRY@appvance.com,user,Appvance,AppvanceSH93847573*A,AppvanceSH93847573*A
Eduardo_Perez_ANCESTRY@appvance.com,user,Appvance,AppvanceSH93847573*A,AppvanceSH93847573*A
Aishwarya_Sharma_ANCESTRY@appvance.com,user,Appvance,AppvanceSH93847573*A,AppvanceSH93847573*A
Saranya_Prakash_AVANTORSCIENCES@appvance.com,user,Appvance,AppvanceSH93847573*A,AppvanceSH93847573*A
Nagarathinam_Ranganathan_AVANTORSCIENCES@appvance.com,user,Appvance,AppvanceSH93847573*A,AppvanceSH93847573*A
Prakash_Govindasamy_AVANTORSCIENCES@appvance.com,user,Appvance,AppvanceSH93847573*A,AppvanceSH93847573*A
Mary_Lyons_DELOITTE@appvance.com,user,Appvance,AppvanceSH93847573*A,AppvanceSH93847573*A
Shaik_Iliyas_DELOITTE@appvance.com,user,Appvance,AppvanceSH93847573*A,AppvanceSH93847573*A
Shravany_Sunkesula_DELOITTE@appvance.com,user,Appvance,AppvanceSH93847573*A,AppvanceSH93847573*A
Subhasmita_Swain_DELOITTE@appvance.com,user,Appvance,AppvanceSH93847573*A,AppvanceSH93847573*A
Purva_Patil_CAPGEMINI@appvance.com,user,Appvance,AppvanceSH93847573*A,AppvanceSH93847573*A
Snehal_Songire_CAPGEMINI@appvance.com,user,Appvance,AppvanceSH93847573*A,AppvanceSH93847573*A
Doyin_Fanimo_CAPGEMINI@appvance.com,user,Appvance,AppvanceSH93847573*A,AppvanceSH93847573*A
Mohd_Khan_CAPGEMINI@appvance.com,user,Appvance,AppvanceSH93847573*A,AppvanceSH93847573*A
Venkata_Sobili_CAPGEMINI@appvance.com,user,Appvance,AppvanceSH93847573*A,AppvanceSH93847573*A
Ragini_Khollam_CAPGEMINI@appvance.com,user,Appvance,AppvanceSH93847573*A,AppvanceSH93847573*A
Apurva_Pandit_CAPGEMINI@appvance.com,user,Appvance,AppvanceSH93847573*A,AppvanceSH93847573*A
Prashant_Japathibabu_CAPGEMINI@appvance.com,user,Appvance,AppvanceSH93847573*A,AppvanceSH93847573*A
Tharun_Kumar_CAPGEMINI@appvance.com,user,Appvance,AppvanceSH93847573*A,AppvanceSH93847573*A
Ashvini_Tekade_CAPGEMINI@appvance.com,user,Appvance,AppvanceSH93847573*A,AppvanceSH93847573*A
Omkar_Pise_CAPGEMINI@appvance.com,user,Appvance,AppvanceSH93847573*A,AppvanceSH93847573*A
Devarshi_Tandel_CAPGEMINI@appvance.com,user,Appvance,AppvanceSH93847573*A,AppvanceSH93847573*A
Shreya_Karande_CAPGEMINI@appvance.com,user,Appvance,AppvanceSH93847573*A,AppvanceSH93847573*A
Shivani_Maddala_CAPGEMINI@appvance.com,user,Appvance,AppvanceSH93847573*A,AppvanceSH93847573*A
Aatish_Sambyal_SPGLOBAL@appvance.com,user,Appvance,AppvanceSH93847573*A,AppvanceSH93847573*A
Manoj_Yadav_SPGLOBAL@appvance.com,user,Appvance,AppvanceSH93847573*A,AppvanceSH93847573*A
Rachit_Srivastava_SPGLOBAL@appvance.com,user,Appvance,AppvanceSH93847573*A,AppvanceSH93847573*A
Nikhil_Gupta_SPGLOBAL@appvance.com,user,Appvance,AppvanceSH93847573*A,AppvanceSH93847573*A
Ashish_Yadav_SPGLOBAL@appvance.com,user,Appvance,AppvanceSH93847573*A,AppvanceSH93847573*A
Tanima_Rai_SPGLOBAL@appvance.com,user,Appvance,AppvanceSH93847573*A,AppvanceSH93847573*A
Vikas_Pandey_SPGLOBAL@appvance.com,user,Appvance,AppvanceSH93847573*A,AppvanceSH93847573*A
Saurabh_Walia_SPGLOBAL@appvance.com,user,Appvance,AppvanceSH93847573*A,AppvanceSH93847573*A
Arun_Kapoor_SPGLOBAL@appvance.com,user,Appvance,AppvanceSH93847573*A,AppvanceSH93847573*A
Sachin_Bapurao_ACCENTURE@appvance.ai,user,Appvance,AppvanceSH93847573*A,AppvanceSH93847573*A
Kavya_Ravindran_ACCENTURE@appvance.ai,user,Appvance,AppvanceSH93847573*A,AppvanceSH93847573*A
Gadiraju_Sneha_ACCENTURE@appvance.ai,user,Appvance,AppvanceSH93847573*A,AppvanceSH93847573*A
Dineshkumar_Loganathan_SYSVEDA@appvance.com,user,Appvance,AppvanceSH93847573*A,AppvanceSH93847573*A
Prasanth_Pasupathirajan_SYSVEDA@appvance.com,user,Appvance,AppvanceSH93847573*A,AppvanceSH93847573*A
Ravirajan_Bakthapiragalathan_SYSVEDA@appvance.com,user,Appvance,AppvanceSH93847573*A,AppvanceSH93847573*A
Senthilkumar_Ramalingam_SYSVEDA@appvance.com,user,Appvance,AppvanceSH93847573*A,AppvanceSH93847573*A
Kishanyadav_Chennareddygari_SYSVEDA@appvance.com,user,Appvance,AppvanceSH93847573*A,AppvanceSH93847573*A
Shalini_Naganathan_SYSVEDA@appvance.com,user,Appvance,AppvanceSH93847573*A,AppvanceSH93847573*A
Arunkumar_Vinayagam_SYSVEDA@appvance.com,user,Appvance,AppvanceSH93847573*A,AppvanceSH93847573*A
Revathy_Ganesan_SYSVEDA@appvance.com,user,Appvance,AppvanceSH93847573*A,AppvanceSH93847573*A
Vinithakumari_Kannan_SYSVEDA@appvance.com,user,Appvance,AppvanceSH93847573*A,AppvanceSH93847573*A
Kuzhali_Jayavelu_SYSVEDA@appvance.com,user,Appvance,AppvanceSH93847573*A,AppvanceSH93847573*A
Mano_Murugesan_SYSVEDA@appvance.com,user,Appvance,AppvanceSH93847573*A,AppvanceSH93847573*A
Pavithra_Karthikeyan_SYSVEDA@appvance.com,user,Appvance,AppvanceSH93847573*A,AppvanceSH93847573*A
Sowmiya_Kumaresan_SYSVEDA@appvance.com,user,Appvance,AppvanceSH93847573*A,AppvanceSH93847573*A
Gokila_Rajendran_SYSVEDA@appvance.com,user,Appvance,AppvanceSH93847573*A,AppvanceSH93847573*A
Aravindan_Vijayakumar_SYSVEDA@appvance.com,user,Appvance,AppvanceSH93847573*A,AppvanceSH93847573*A
Arvindreddy_Raghupathireddy_SYSVEDA@appvance.com,user,Appvance,AppvanceSH93847573*A,AppvanceSH93847573*A
Srinath_Sundarrajan_SYSVEDA@appvance.com,user,Appvance,AppvanceSH93847573*A,AppvanceSH93847573*A
Syedimran_Thamisdeen_SYSVEDA@appvance.com,user,Appvance,AppvanceSH93847573*A,AppvanceSH93847573*A
Sharmila_Palani_SYSVEDA@appvance.com,user,Appvance,AppvanceSH93847573*A,AppvanceSH93847573*A
Rajalakshmi_Annadurai_SYSVEDA@appvance.com,user,Appvance,AppvanceSH93847573*A,AppvanceSH93847573*A
Arunprakash_Jothi_SYSVEDA@appvance.com,user,Appvance,AppvanceSH93847573*A,AppvanceSH93847573*A
Jancyjenifer_Michaelraj_SYSVEDA@appvance.com,user,Appvance,AppvanceSH93847573*A,AppvanceSH93847573*A
Priya_Sankaranarayanan_SYSVEDA@appvance.com,user,Appvance,AppvanceSH93847573*A,AppvanceSH93847573*A
Aravindh_Ganesan_SYSVEDA@appvance.com,user,Appvance,AppvanceSH93847573*A,AppvanceSH93847573*A
Abinaya_Vijayakumar_SYSVEDA@appvance.com,user,Appvance,AppvanceSH93847573*A,AppvanceSH93847573*A
Brindha_Muthaiah_SYSVEDA@appvance.com,user,Appvance,AppvanceSH93847573*A,AppvanceSH93847573*A
Sivaramakrishnan_Palanisamy_SYSVEDA@appvance.com,user,Appvance,AppvanceSH93847573*A,AppvanceSH93847573*A
Sathyapriya_Sekar_SYSVEDA@appvance.com,user,Appvance,AppvanceSH93847573*A,AppvanceSH93847573*A
Deepak_Chandru_SYSVEDA@appvance.com,user,Appvance,AppvanceSH93847573*A,AppvanceSH93847573*A
Vijay_Subramani_SYSVEDA@appvance.com,user,Appvance,AppvanceSH93847573*A,AppvanceSH93847573*A
Vinothkumar_Rajendran_SYSVEDA@appvance.com,user,Appvance,AppvanceSH93847573*A,AppvanceSH93847573*A
Sankaranarayani_Regupathy_SYSVEDA@appvance.com,user,Appvance,AppvanceSH93847573*A,AppvanceSH93847573*A
Sivaram_Nagarajan_SYSVEDA@appvance.com,user,Appvance,AppvanceSH93847573*A,AppvanceSH93847573*A
Dhivakar_Ramachandran_SYSVEDA@appvance.com,user,Appvance,AppvanceSH93847573*A,AppvanceSH93847573*A
Navinkumar_Kumar_SYSVEDA@appvance.com,user,Appvance,AppvanceSH93847573*A,AppvanceSH93847573*A
Sujitha_Uvaraj_SYSVEDA@appvance.com,user,Appvance,AppvanceSH93847573*A,AppvanceSH93847573*A
Karthick_Palani_SYSVEDA@appvance.com,user,Appvance,AppvanceSH93847573*A,AppvanceSH93847573*A
Keerthana_Arulselvan_SYSVEDA@appvance.com,user,Appvance,AppvanceSH93847573*A,AppvanceSH93847573*A
Archana_Anbarasan_SYSVEDA@appvance.com,user,Appvance,AppvanceSH93847573*A,AppvanceSH93847573*A
Venkateshwaran_Govindaraj_SYSVEDA@appvance.com,user,Appvance,AppvanceSH93847573*A,AppvanceSH93847573*A
Junaida_Kurnool_SYSVEDA@appvance.com,user,Appvance,AppvanceSH93847573*A,AppvanceSH93847573*A
Mahadevan_Ramaiah_SYSVEDA@appvance.com,user,Appvance,AppvanceSH93847573*A,AppvanceSH93847573*A
Ayub_Khan_SYSVEDA@appvance.com,user,Appvance,AppvanceSH93847573*A,AppvanceSH93847573*A
Praveen_Gandhi_SYSVEDA@appvance.com,user,Appvance,AppvanceSH93847573*A,AppvanceSH93847573*A
Swetha_Palaniyappan_SYSVEDA@appvance.com,user,Appvance,AppvanceSH93847573*A,AppvanceSH93847573*A
Anizur_Sherif_SYSVEDA@appvance.com,user,Appvance,AppvanceSH93847573*A,AppvanceSH93847573*A
Gopika_Raghunath_SYSVEDA@appvance.com,user,Appvance,AppvanceSH93847573*A,AppvanceSH93847573*A
Alvinaangel_Sam_SYSVEDA@appvance.com,user,Appvance,AppvanceSH93847573*A,AppvanceSH93847573*A
Thamotharan_Gopalswamy_SYSVEDA@appvance.com,user,Appvance,AppvanceSH93847573*A,AppvanceSH93847573*A
PAVUNKUMAR_RAJA_SYSVEDA@appvance.com,user,Appvance,AppvanceSH93847573*A,AppvanceSH93847573*A
Niharika_Alurgudur_ACCENTURE@appvance.com,user,Appvance,AppvanceSH93847573*A,AppvanceSH93847573*A
Bhupali_Sonkusare_PERATON@appvance.com,user,Appvance,AppvanceSH93847573*A,AppvanceSH93847573*A
Manju_Tulala_PERATON@appvance.com,user,Appvance,AppvanceSH93847573*A,AppvanceSH93847573*A
Debra_Popa_PERATON@appvance.com,user,Appvance,AppvanceSH93847573*A,AppvanceSH93847573*A
Manasmitha_Devatha_PERATON@appvance.com,user,Appvance,AppvanceSH93847573*A,AppvanceSH93847573*A
Gerardo_Luna_PERATON@appvance.com,user,Appvance,AppvanceSH93847573*A,AppvanceSH93847573*A
Niharika_Alurgudur_ACCENTURE@appvance.com,user,Appvance,AppvanceSH93847573*A,AppvanceSH93847573*A
Maya_Adaikkalam_ACCENTURE@appvance.com,user,Appvance,AppvanceSH93847573*A,AppvanceSH93847573*A
Akhil_Reddy_ACCENTURE@appvance.com,user,Appvance,AppvanceSH93847573*A,AppvanceSH93847573*A
RADHA_SANKARAN_FTDINFOCOM@appvance.com,user,Appvance,AppvanceSH93847573*A,AppvanceSH93847573*A
JAYANTH_K_FTDINFOCOM@appvance.com,user,Appvance,AppvanceSH93847573*A,AppvanceSH93847573*A
Aravinda_Halemane_STREAMLINEHEALTH@appvance.com,user,Appvance,AppvanceSH93847573*A,AppvanceSH93847573*A
Shankar_Bhethalam_STREAMLINEHEALTH@appvance.com,user,Appvance,AppvanceSH93847573*A,AppvanceSH93847573*A
Diya_Elizabeth_STREAMLINEHEALTH@appvance.com,user,Appvance,AppvanceSH93847573*A,AppvanceSH93847573*A
Shravani_Chilukoori_STREAMLINEHEALTH@appvance.com,user,Appvance,AppvanceSH93847573*A,AppvanceSH93847573*A
Venkat_Rao_STREAMLINEHEALTH@appvance.com,user,Appvance,AppvanceSH93847573*A,AppvanceSH93847573*A
Sowmya_Sabada_CAPGEMINI@appvance.ai,user,Appvance,AppvanceSH93847573*A,AppvanceSH93847573*A
Kevin_Feng_SIEMENS@appvance.com,user,Appvance,AppvanceSH93847573*A,AppvanceSH93847573*A
Michele_Wilson_SIEMENS@appvance.com,user,Appvance,AppvanceSH93847573*A,AppvanceSH93847573*A
Janaki_Rai_SIEMENS@appvance.com,user,Appvance,AppvanceSH93847573*A,AppvanceSH93847573*A
Kalpesh_Modi_SIEMENS@appvance.com,user,Appvance,AppvanceSH93847573*A,AppvanceSH93847573*A
Xianzhou_Liu_SIEMENS@appvance.com,user,Appvance,AppvanceSH93847573*A,AppvanceSH93847573*A
Simon_Jesmin_SIEMENS@appvance.com,user,Appvance,AppvanceSH93847573*A,AppvanceSH93847573*A
Harry_Cai_SIEMENS@appvance.com,user,Appvance,AppvanceSH93847573*A,AppvanceSH93847573*A
Yan_Chen_SIEMENS@appvance.com,user,Appvance,AppvanceSH93847573*A,AppvanceSH93847573*A
Frederick_Egyir_SIEMENS@appvance.com,user,Appvance,AppvanceSH93847573*A,AppvanceSH93847573*A
Volodymyr_Golovchak_SIEMENS@appvance.com,user,Appvance,AppvanceSH93847573*A,AppvanceSH93847573*A
Qiao_Gu_SIEMENS@appvance.com,user,Appvance,AppvanceSH93847573*A,AppvanceSH93847573*A
Sandhya_Ibrahimpatnam_SIEMENS@appvance.com,user,Appvance,AppvanceSH93847573*A,AppvanceSH93847573*A
Guofeng_Liu_SIEMENS@appvance.com,user,Appvance,AppvanceSH93847573*A,AppvanceSH93847573*A
Shrawan_Nakhasi_SIEMENS@appvance.com,user,Appvance,AppvanceSH93847573*A,AppvanceSH93847573*A
Leo_Shu_SIEMENS@appvance.com,user,Appvance,AppvanceSH93847573*A,AppvanceSH93847573*A
Yafang_Song_SIEMENS@appvance.com,user,Appvance,AppvanceSH93847573*A,AppvanceSH93847573*A
Jianxing_Wen_SIEMENS@appvance.com,user,Appvance,AppvanceSH93847573*A,AppvanceSH93847573*A
Yang_Xu_SIEMENS@appvance.com,user,Appvance,AppvanceSH93847573*A,AppvanceSH93847573*A
Kun_Zhang_SIEMENS@appvance.com,user,Appvance,AppvanceSH93847573*A,AppvanceSH93847573*A
Wenya_Wang_SIEMENS@appvance.com,user,Appvance,AppvanceSH93847573*A,AppvanceSH93847573*A
Nina_Liang_SIEMENS@appvance.com,user,Appvance,AppvanceSH93847573*A,AppvanceSH93847573*A
Shishir_Mehta_DELOITTE@appvance.ai,user,Appvance,AppvanceSH93847573*A,AppvanceSH93847573*A
Sonali_Kadam_DELOITTE@appvance.ai,user,Appvance,AppvanceSH93847573*A,AppvanceSH93847573*A
Prathyusha_Prathyusha_DELOITTE@appvance.ai,user,Appvance,AppvanceSH93847573*A,AppvanceSH93847573*A
Lipti_Pradhan_DELOITTE@appvance.ai,user,Appvance,AppvanceSH93847573*A,AppvanceSH93847573*A
Arina_Desouza_DELOITTE@appvance.ai,user,Appvance,AppvanceSH93847573*A,AppvanceSH93847573*A
Vinod_Returi_DELOITTE@appvance.ai,user,Appvance,AppvanceSH93847573*A,AppvanceSH93847573*A
Dushan_Ivanov_QLIVERY@appvance.ai,user,Appvance,AppvanceSH93847573*A,AppvanceSH93847573*A
Anurag_Agarwal_COGNIZANT@appvance.ai,user,Appvance,AppvanceSH93847573*A,AppvanceSH93847573*A
Dharmendra_Mahanty_COGNIZANT@appvance.ai,user,Appvance,AppvanceSH93847573*A,AppvanceSH93847573*A
Dhowlathbasha_Shahajath_COGNIZANT@appvance.ai,user,Appvance,AppvanceSH93847573*A,AppvanceSH93847573*A
Joost_Jongman_COGNIZANT@appvance.ai,user,Appvance,AppvanceSH93847573*A,AppvanceSH93847573*A
Joywell_Dsouza_COGNIZANT@appvance.ai,user,Appvance,AppvanceSH93847573*A,AppvanceSH93847573*A
Marco_Den_COGNIZANT@appvance.ai,user,Appvance,AppvanceSH93847573*A,AppvanceSH93847573*A
Mayank_Alok_COGNIZANT@appvance.ai,user,Appvance,AppvanceSH93847573*A,AppvanceSH93847573*A
Nithya_Krishnaswamy_COGNIZANT@appvance.ai,user,Appvance,AppvanceSH93847573*A,AppvanceSH93847573*A
Vaidik_Padimiti_COGNIZANT@appvance.ai,user,Appvance,AppvanceSH93847573*A,AppvanceSH93847573*A
Sayan_Chatterjee_COGNIZANT@appvance.ai,user,Appvance,AppvanceSH93847573*A,AppvanceSH93847573*A
Varadashashikumar_LNU_COGNIZANT@appvance.ai,user,Appvance,AppvanceSH93847573*A,AppvanceSH93847573*A
Yatish_Upmanyu_COGNIZANT@appvance.ai,user,Appvance,AppvanceSH93847573*A,AppvanceSH93847573*A
Ashish_Nikumbh_COGNIZANT@appvance.ai,user,Appvance,AppvanceSH93847573*A,AppvanceSH93847573*A
Prajval_Wachkavade_COGNIZANT@appvance.ai,user,Appvance,AppvanceSH93847573*A,AppvanceSH93847573*A
Sravanth_Nagunuri_COGNIZANT@appvance.ai,user,Appvance,AppvanceSH93847573*A,AppvanceSH93847573*A
Santosh_Morsu_COGNIZANT@appvance.ai,user,Appvance,AppvanceSH93847573*A,AppvanceSH93847573*A
Lakshmi_Jonnalagadda_COGNIZANT@appvance.ai,user,Appvance,AppvanceSH93847573*A,AppvanceSH93847573*A
Padmakshi_Nampalli_COGNIZANT@appvance.ai,user,Appvance,AppvanceSH93847573*A,AppvanceSH93847573*A
Aniruddha_Chakraborty_COGNIZANT@appvance.ai,user,Appvance,AppvanceSH93847573*A,AppvanceSH93847573*A
Arjun_Nair_AVANTORSCIENCES@appvance.ai,user,Appvance,AppvanceSH93847573*A,AppvanceSH93847573*A
Srijith_Surendran_AVANTORSCIENCES@appvance.ai,user,Appvance,AppvanceSH93847573*A,AppvanceSH93847573*A
Dharmesh_Jain_AVANTORSCIENCES@appvance.ai,user,Appvance,AppvanceSH93847573*A,AppvanceSH93847573*A
Shankar_Ramakrishna_LIBERTY@appvance.ai,user,Appvance,AppvanceSH93847573*A,AppvanceSH93847573*A
Nirupama_Bhardwaj_LIBERTY@appvance.ai,user,Appvance,AppvanceSH93847573*A,AppvanceSH93847573*A
Viladeth_Saetia_LIBERTY@appvance.ai,user,Appvance,AppvanceSH93847573*A,AppvanceSH93847573*A
Sree_Pilla_LIBERTY@appvance.ai,user,Appvance,AppvanceSH93847573*A,AppvanceSH93847573*A
Mohamed_Hammoumi_CAPGEMINI@appvance.ai,user,Appvance,AppvanceSH93847573*A,AppvanceSH93847573*A
Priti_Tailor_CAPGEMINI@appvance.ai,user,Appvance,AppvanceSH93847573*A,AppvanceSH93847573*A
Moumita_Mitra_COGNIZANT@appvance.ai,user,Appvance,AppvanceSH93847573*A,AppvanceSH93847573*A
Sachin_Patil_ACCENTURE@appvance.ai,user,Appvance,AppvanceSH93847573*A,AppvanceSH93847573*A
Niharika_Alurgudur_ACCENTURE@appvance.ai,user,Appvance,AppvanceSH93847573*A,AppvanceSH93847573*A