[
   {
      "configName":"ZooAppSauceiOS",
      "app":"",
      "appPackage":"net.apadilla.ZooApp",
      "proxyURL":"",
      "bundleId":"",
      "source":"package",
      "appActivity":".MainActivity",
      "deviceMode":true,
      "service":"Sauce Labs",
      "serverURL":"https://ingcesarduque:fbd268a5-0d71-413a-8428-d8a42f286ba9@ondemand.us-west-1.saucelabs.com:443/wd/hub",
      "platformName":"iOS",
      "validDomains":"",
      "capabilities":{
         "platformVersion":"16",
         "deviceName":"iPhone 14 Pro Max",
         "deviceOrientation":"portrait",
         "browserName":"",
         "app":"storage:filename=ZooApp.ipa"
      }
   }
]
